…
showing the main variables of the regression (without $x_j$ ), i.e $(\Delta ln(s_{tj}), p_{jt})$

``` {.r}
df %>% select(
  mkt,
  brand,
  model,
   dln_s,
  eurpr
)
```

    ## # A tibble: 11,549 x 5
    ##    mkt        brand      model dln_s eurpr
    ##    <fct>      <chr>      <chr> <dbl> <dbl>
    ##  1 Belgium_83 alfa romeo 33    -9.48 6078.
    ##  2 Belgium_84 alfa romeo 33    -8.54 5859.
    ##  3 Belgium_85 alfa romeo 33    -8.59 6126.
    ##  4 Belgium_86 alfa romeo 33    -8.44 6559.
    ##  5 Belgium_87 alfa romeo 33    -8.39 7272.
    ##  6 Belgium_88 alfa romeo 33    -8.42 7527.
    ##  7 Belgium_89 alfa romeo 33    -8.57 8282.
    ##  8 Belgium_90 alfa romeo 33    -8.17 9353.
    ##  9 Belgium_91 alfa romeo 33    -8.11 9128.
    ## 10 Belgium_92 alfa romeo 33    -8.12 9138.
    ## # ... with 11,539 more rows
…
Where $\alpha$ is our parameter of interest, and $p_{jt}$ is given in common currency, as `eurpr`.

``` {.r}
ols_model <- lm_robust(
  dln_s ~ eurpr + cy + home + hp + we + as.factor(pl) + as.factor(do) + he + li1 + li2 +li3 +li+sp + ac ,
  data = df,
  se_type = "stata",
  clusters = ma,
  fixed_effects = ~  brand + model
)

tidy(ols_model$coefficients)
```

    ## # A tibble: 26 x 2
    ##    names                     x
    ##    <chr>                 <dbl>
    ##  1 eurpr            -0.0000625
    ##  2 cy               -0.000650 
    ##  3 home              1.59     
    ##  4 hp               -0.0264   
    ##  5 we                0.000687 
    ##  6 as.factor(pl)3    1.03     
    ##  7 as.factor(pl)4    0.225    
    ##  8 as.factor(pl)4.5  0.291    
    ##  9 as.factor(pl)5    0.152    
    ## 10 as.factor(pl)5.5 -0.269    
    ## # ... with 16 more rows
…
